Get started • clinicalsignificance
…
Suppose an intervention that enhances the placebo effect of
antidepressants in routine care. Claus et al.
(2020) conducted a study examining this intervention in a routine
care setting for depressive disorders by comparing a group of patients
receiving treatment as usual (TAU) with a group of patients receiving
the placebo amplification intervention (PA). They assessed patients four
times during treatment with measurements carried out pre treatment, two
times during treatment and one time post treatment. The original study
data is included in the package as claus_2020.

library(clinicalsignificance)

claus_2020
#> # A tibble: 172 × 9
#>       id   age sex    treatment  time   bdi shaps   who  hamd
#>    <dbl> <dbl> <fct>  <fct>     <dbl> <dbl> <dbl> <dbl> <dbl>
#>  1     1    54 Male   TAU           1    33     9     0    25
#>  2     1    54 Male   TAU           2    28     6     3    17
#>  3     1    54 Male   TAU           3    28     9     7    13
#>  4     1    54 Male   TAU           4    27     8     3    13
#>  5     2    52 Female PA            1    26    11     2    15
#>  6     2    52 Female PA            2    26    10     0    16
#>  7     2    52 Female PA            3    25    10     0     7
#>  8     2    52 Female PA            4    19     9     3    11
#>  9     3    54 Male   PA            1    15     2     0    28
#> 10     3    54 Male   PA            2    13     5     9    17
#> # … with 162 more rows
…
