Clinical Significance Plots • clinicalsignificance
…
Clinical significance results can be presented in tabular form and as
figures. Figures are especially informative and can be used to
understand the different clinical significance categories.

Let’s consider the fictitious data set anxiety. This
data set contains anxiety scores of 116 subjects assessed at five
measurements during a psychological intervention. Measurement 0
corresponds to the pre intervention and measurement 4 to the post
intervention assessment. Furthermore, the sample is grouped into two
experimental conditions (Placebo vs. Intervention).

library(clinicalsignificance)

anxiety
#> # A tibble: 580 × 4
#>    subject treatment    measurement anxiety
#>    <chr>   <fct>              <dbl>   <dbl>
#>  1 S001    Placebo                0    36.2
#>  2 S001    Placebo                1    32.4
#>  3 S001    Placebo                2    35.9
#>  4 S001    Placebo                3    32.6
#>  5 S001    Placebo                4    NA  
#>  6 S002    Intervention           0    30.1
#>  7 S002    Intervention           1    28.3
#>  8 S002    Intervention           2    34.0
#>  9 S002    Intervention           3    33.1
#> 10 S002    Intervention           4    33.8
#> # … with 570 more rows
…
