Get Data Augmented With Clinical Significance Categories — get_augmented_data • clinicalsignificance
…
results <- jacobson_1989 %>%
clinical_significance(
  id = subject,
  time = time,
  outcome = gds,
  pre = "pre",
  reliability = 0.80,
  m_functional = 30,
  sd_functional = 7,
  type = "c"
)

get_augmented_data(results)
#> # A tibble: 26 × 13
#>       id   pre  post change    rci clinical_pre functional_post recovered
#>    <dbl> <dbl> <dbl>  <dbl>  <dbl> <lgl>        <lgl>           <lgl>    
#>  1     1  68    62.5   -5.5 -1.43  TRUE         FALSE           FALSE    
#>  2     2  74.5  56    -18.5 -4.79  TRUE         FALSE           FALSE    
#>  3     3  58.5  58     -0.5 -0.130 TRUE         FALSE           FALSE    
#>  4     4  73.5  71     -2.5 -0.648 TRUE         FALSE           FALSE    
#>  5     5  78.5  60.5  -18   -4.66  TRUE         FALSE           FALSE    
#>  6     6  76    77      1    0.259 TRUE         FALSE           FALSE    
#>  7     7  76.5  58.5  -18   -4.66  TRUE         FALSE           FALSE    
#>  8     8  63    52    -11   -2.85  TRUE         FALSE           FALSE    
#>  9     9  70    65.5   -4.5 -1.17  TRUE         FALSE           FALSE    
#> 10    10  75    73     -2   -0.518 TRUE         FALSE           FALSE    
#> # … with 16 more rows, and 5 more variables: improved <lgl>, unchanged <lgl>,
#> #   deteriorated <lgl>, harmed <lgl>, category <fct>
…
