Distribution-Based Approach • clinicalsignificance
…
R installed on your computer.

Basic understanding of R programming concepts.

Looking at the Datasets

First, let’s have a look at the datasets, which come with the
package.

library(clinicalsignificance)

antidepressants
#> # A tibble: 1,110 × 4
#>    patient condition measurement mom_di
#>    <chr>   <fct>     <fct>        <dbl>
#>  1 S001    Wait List Before          50
#>  2 S001    Wait List After           36
#>  3 S002    Wait List Before          40
#>  4 S002    Wait List After           32
#>  5 S003    Wait List Before          38
#>  6 S003    Wait List After           41
#>  7 S004    Wait List Before          29
#>  8 S004    Wait List After           44
#>  9 S005    Wait List Before          37
#> 10 S005    Wait List After           45
#> # ℹ 1,100 more rows
claus_2020
#> # A tibble: 172 × 9
#>       id   age sex    treatment  time   bdi shaps   who  hamd
#>    <dbl> <dbl> <fct>  <fct>     <dbl> <dbl> <dbl> <dbl> <dbl>
#>  1     1    54 Male   TAU           1    33     9     0    25
#>  2     1    54 Male   TAU           2    28     6     3    17
#>  3     1    54 Male   TAU           3    28     9     7    13
#>  4     1    54 Male   TAU           4    27     8     3    13
#>  5     2    52 Female PA            1    26    11     2    15
#>  6     2    52 Female PA            2    26    10     0    16
#>  7     2    52 Female PA            3    25    10     0     7
#>  8     2    52 Female PA            4    19     9     3    11
#>  9     3    54 Male   PA            1    15     2     0    28
#> 10     3    54 Male   PA            2    13     5     9    17
#> # ℹ 162 more rows
…
